<svg width="22" height="22" viewBox="0 0 22 22" fill="none" xmlns="http://www.w3.org/2000/svg">
<path d="M20.8779 20.4471L14.7925 14.349C16.0565 12.9427 16.8333 11.0885 16.8333 9.05136C16.8333 4.6771 13.2819 1.11829 8.91667 1.11829C4.55144 1.11829 1 4.6771 1 9.05139C1 13.4257 4.55144 16.9845 8.91667 16.9845C10.9496 16.9845 12.7999 16.2061 14.2034 14.9394L20.2887 21.0375C20.3701 21.119 20.4767 21.1598 20.5833 21.1598C20.6899 21.1598 20.7965 21.119 20.878 21.0375C21.0407 20.8744 21.0407 20.6101 20.8779 20.4471ZM8.91667 16.1494C5.01125 16.1494 1.83336 12.9653 1.83336 9.05139C1.83336 5.13747 5.01125 1.95334 8.91667 1.95334C12.8221 1.95334 16 5.13743 16 9.05139C16 12.9654 12.8221 16.1494 8.91667 16.1494Z" fill="#3F3131" stroke="#3F3131" stroke-width="0.701194"/>
</svg>
